Actuele status tijdstip: Sun Sep 07 00:06:00 2014


DatumTijd, Nummer, Status, Klasse, Urgentie, Chartcode, Point of error, Apparaatcode, Object, Melding, Lokatie, Context
'2014-07-28 21:02:39.741', 314107, IN, Storing, Waarschuwing, =142+YC108/E1, =142+XM001, , TUNNELPORTAAL 8, MSI lampstoring portaal, ++BO.04.01, Verkeer
'2014-07-28 21:02:39.754', 314506, IN, Melding, Informatief, =142+YC305/E1, =142+XM001, , LOKAAL VERKEERSSTATION PORTAAL 5, OS uit bedrijf portaal, ++WZ.16.20, Verkeer
'2014-07-28 21:02:39.816', 334023, IN, Storing, Waarschuwing, =142+YC204/E1, =142+XM001, , TUNNELPORTAAL 4, MSI lampstoring portaal, ++BW.02.02, Verkeer
'2014-07-28 21:02:39.817', 334043, IN, Storing, Waarschuwing, =142+YC205/E1, =142+XM001, , TUNNELPORTAAL 5, MSI lampstoring portaal, ++BW.03.01, Verkeer

Checksum: 1296678

Archief afgelopen 24 uur tijdstip: Mon Sep 08 00:06:01 2014

DatumTijd, Nummer, Status, Klasse, Urgentie, Chartcode, Point of error, Apparaatcode, Object, Melding, Lokatie, Context

Checksum: 0

Status DCF klok tijdstip: Mon Sep 08 00:06:04 2014

Radio clock state: OK

